Linguagem R: Manipulação de Dados
…
library(dplyr)
adult_clean <- adult %>% 
  select(age, workclass, education,
         education_num = `educational-num`,
         marital_status = `marital-status`,
         race, gender,
         hours_per_week = `hours-per-week`,
         income)

OBS: Tem a função rename_with do {dplyr} versão 1.0.

adult %>% 
  rename_with(~gsub("-", "_", .x))

# A tibble: 48,842 × 9
     age workclass educa…¹ educa…² marit…³ race  gender hours…⁴ income
   <int> <fct>     <fct>     <int> <fct>   <fct> <fct>    <int> <fct> 
 1    25 Private   11th          7 Never-… Black Male        40 <=50K 
 2    38 Private   HS-grad       9 Marrie… White Male        50 <=50K 
 3    28 Local-gov Assoc-…      12 Marrie… White Male        40 >50K  
 4    44 Private   Some-c…      10 Marrie… Black Male        40 >50K  
 5    18 ?         Some-c…      10 Never-… White Female      30 <=50K 
 6    34 Private   10th          6 Never-… White Male        30 <=50K 
 7    29 ?         HS-grad       9 Never-… Black Male        40 <=50K 
 8    63 Self-emp… Prof-s…      15 Marrie… White Male        32 >50K  
 9    24 Private   Some-c…      10 Never-… White Female      40 <=50K 
10    55 Private   7th-8th       4 Marrie… White Male        10 <=50K 
# … with 48,832 more rows, and abbreviated variable names ¹​education,
#   ²​educational_num, ³​marital_status, ⁴​hours_per_week

adult %>% 
  rename_with(~gsub("-", "_", .x)) %>% 
  select(where(is.factor)) %>% 
  select(-workclass) %>% 
  rename_all(~paste0("antigo_", .x))

# A tibble: 48,842 × 5
   antigo_education antigo_marital_status antigo_race antigo…¹ antig…²
   <fct>            <fct>                 <fct>       <fct>    <fct>  
 1 11th             Never-married         Black       Male     <=50K  
 2 HS-grad          Married-civ-spouse    White       Male     <=50K  
 3 Assoc-acdm       Married-civ-spouse    White       Male     >50K   
 4 Some-college     Married-civ-spouse    Black       Male     >50K   
 5 Some-college     Never-married         White       Female   <=50K  
 6 10th             Never-married         White       Male     <=50K  
 7 HS-grad          Never-married         Black       Male     <=50K  
 8 Prof-school      Married-civ-spouse    White       Male     >50K   
 9 Some-college     Never-married         White       Female   <=50K  
10 7th-8th          Married-civ-spouse    White       Male     <=50K  
# … with 48,832 more rows, and abbreviated variable names
#   ¹​antigo_gender, ²​antigo_income

Professor eu gosto de camelCase e agora?

Não tema, tem o pacote {janitor}

library(janitor)
adult %>% clean_names(case = "lower_camel")

# A tibble: 48,842 × 9
     age workclass educa…¹ educa…² marit…³ race  gender hours…⁴ income
   <int> <fct>     <fct>     <int> <fct>   <fct> <fct>    <int> <fct> 
 1    25 Private   11th          7 Never-… Black Male        40 <=50K 
 2    38 Private   HS-grad       9 Marrie… White Male        50 <=50K 
 3    28 Local-gov Assoc-…      12 Marrie… White Male        40 >50K  
 4    44 Private   Some-c…      10 Marrie… Black Male        40 >50K  
 5    18 ?         Some-c…      10 Never-… White Female      30 <=50K 
 6    34 Private   10th          6 Never-… White Male        30 <=50K 
 7    29 ?         HS-grad       9 Never-… Black Male        40 <=50K 
 8    63 Self-emp… Prof-s…      15 Marrie… White Male        32 >50K  
 9    24 Private   Some-c…      10 Never-… White Female      40 <=50K 
10    55 Private   7th-8th       4 Marrie… White Male        10 <=50K 
# … with 48,832 more rows, and abbreviated variable names ¹​education,
#   ²​educationalNum, ³​maritalStatus, ⁴​hoursPerWeek

Ordenar variáveis com dplyr::arrange()

adult_clean %>% 
  arrange(-age, education_num) %>% 
  select(age, education_num)

# A tibble: 48,842 × 2
     age education_num
   <int>         <int>
 1    90             2
 2    90             4
 3    90             4
 4    90             4
 5    90             5
 6    90             6
 7    90             6
 8    90             7
 9    90             7
10    90             9
# … with 48,832 more rows

Frequencias com dplyr::count()

OBS: vamos ver muito essa função quando falarmos de group_by()

adult_clean %>% 
  count(age, income, sort = TRUE)

# A tibble: 142 × 3
     age income     n
   <int> <fct>  <int>
 1    23 <=50K   1307
 2    24 <=50K   1162
 3    22 <=50K   1161
 4    25 <=50K   1119
 5    27 <=50K   1117
 6    20 <=50K   1112
 7    28 <=50K   1101
 8    21 <=50K   1090
 9    26 <=50K   1068
10    19 <=50K   1050
# … with 132 more rows
…
Odeio potência de 10

use options(scipen = 999, digits = 2)

options(scipen = 999, digits = 2)
countries <- countries %>% clean_names()

countries %>% 
  mutate(
    log_pop = log(population),
    area_sq_km = area_sq_mi * 2.5899985,
    pop_density_per_sq_km = population / area_sq_km)

# A tibble: 227 × 23
   country      region popul…¹ area_…² pop_d…³ coast…⁴ net_m…⁵ infan…⁶
   <chr>        <chr>    <int>   <dbl>   <dbl>   <dbl>   <dbl>   <dbl>
 1 Afghanistan  ASIA …  3.11e7  647500    48      0      23.1   163.  
 2 Albania      EASTE…  3.58e6   28748   125.     1.26   -4.93   21.5 
 3 Algeria      NORTH…  3.29e7 2381740    13.8    0.04   -0.39   31   
 4 American Sa… OCEAN…  5.78e4     199   290.    58.3   -20.7     9.27
 5 Andorra      WESTE…  7.12e4     468   152.     0       6.6     4.05
 6 Angola       SUB-S…  1.21e7 1246700     9.7    0.13    0     191.  
 7 Anguilla     LATIN…  1.35e4     102   132.    59.8    10.8    21.0 
 8 Antigua & B… LATIN…  6.91e4     443   156     34.5    -6.15   19.5 
 9 Argentina    LATIN…  3.99e7 2766890    14.4    0.18    0.61   15.2 
10 Armenia      C.W. …  2.98e6   29800    99.9    0      -6.47   23.3 
# … with 217 more rows, 15 more variables: gdp_per_capita <dbl>,
#   literacy_percent <dbl>, phones_per_1000 <dbl>,
#   arable_percent <dbl>, crops_percent <dbl>, other_percent <dbl>,
#   climate <dbl>, birthrate <dbl>, deathrate <dbl>,
#   agriculture <dbl>, industry <dbl>, service <dbl>, log_pop <dbl>,
#   area_sq_km <dbl>, pop_density_per_sq_km <dbl>, and abbreviated
#   variable names ¹​population, ²​area_sq_mi, …

O mutate ele altera variáveis in-place ou adiciona novas variáveis preservando as existentes. Mas temos também o transmute adiciona novas variáveis e dropa todas as demais.

countries %>% 
  transmute(
    log_pop = log(population),
    area_sq_km = area_sq_mi * 2.5899985,
    pop_density_per_sq_km = population / area_sq_km)

# A tibble: 227 × 3
   log_pop area_sq_km pop_density_per_sq_km
     <dbl>      <dbl>                 <dbl>
 1   17.3    1677024.                 18.5 
 2   15.1      74457.                 48.1 
 3   17.3    6168703.                  5.34
 4   11.0        515.                112.  
 5   11.2       1212.                 58.7 
 6   16.3    3228951.                  3.76
 7    9.51       264.                 51.0 
 8   11.1       1147.                 60.2 
 9   17.5    7166241.                  5.57
10   14.9      77182.                 38.6 
# … with 217 more rows

Quase todos os verbos (como vocês viram lá em cima) do {dplyr} tem os sufixos _if, _all e _at. Por exemplo:

covid %>% 
  mutate_if(is.character, as.factor)

# A tibble: 236,017 × 7
   ObservationDate Province/S…¹ Count…² Last …³ Confi…⁴ Deaths Recov…⁵
   <date>          <fct>        <fct>   <fct>     <dbl>  <dbl>   <dbl>
 1 2020-01-22      Anhui        Mainla… 1/22/2…       1      0       0
 2 2020-01-22      Beijing      Mainla… 1/22/2…      14      0       0
 3 2020-01-22      Chongqing    Mainla… 1/22/2…       6      0       0
 4 2020-01-22      Fujian       Mainla… 1/22/2…       1      0       0
 5 2020-01-22      Gansu        Mainla… 1/22/2…       0      0       0
 6 2020-01-22      Guangdong    Mainla… 1/22/2…      26      0       0
 7 2020-01-22      Guangxi      Mainla… 1/22/2…       2      0       0
 8 2020-01-22      Guizhou      Mainla… 1/22/2…       1      0       0
 9 2020-01-22      Hainan       Mainla… 1/22/2…       4      0       0
10 2020-01-22      Hebei        Mainla… 1/22/2…       1      0       0
# … with 236,007 more rows, and abbreviated variable names
#   ¹​`Province/State`, ²​`Country/Region`, ³​`Last Update`, ⁴​Confirmed,
#   ⁵​Recovered

dplyr::if_else e dplyr::case_when

Usamos o if_else quando queremos fazer um teste booleano e gerar um valor caso o teste seja verdadeiro e outro valor caso o teste seja falso. Basicamente um if ... else ...:

adult_clean %>% 
  mutate(
    race_black = if_else(race == "Black", 1L, 0L)
  ) %>% 
  select(starts_with("race"))

# A tibble: 48,842 × 2
   race  race_black
   <fct>      <int>
 1 Black          1
 2 White          0
 3 White          0
 4 Black          1
 5 White          0
 6 White          0
 7 Black          1
 8 White          0
 9 White          0
10 White          0
# … with 48,832 more rows
…
covid %>% 
  janitor::clean_names() %>% 
  group_by(country_region) %>% 
  summarise(
    n = n(),
    media_confirmados = mean(confirmed),
    mediana_confirmados = median(confirmed),
    media_mortos = mean(deaths),
    mediana_mortos = median(deaths)
  ) %>% 
  arrange(-mediana_mortos)

# A tibble: 226 × 6
   country_region     n media_confirmados mediana_co…¹ media…² media…³
   <chr>          <int>             <dbl>        <dbl>   <dbl>   <dbl>
 1 Iran             375           533357.      361150   25526.  20776 
 2 South Africa     360           564541.      627650   14975.  14206 
 3 Argentina        362           713468.      413080.  18151.   8558.
 4 Indonesia        363           334202.      172053   10592.   7343 
 5 Iraq             371           272190.      215784    6416.   6668 
 6 Ecuador          364           116916.      111680    8028.   6546 
 7 Turkey           354           717519.      275749    9999.   6538.
 8 Bolivia          354            98196.      119180.   5184.   5316.
 9 Egypt            380            80259.       97192.   4399.   5237 
10 Bangladesh       357           279329.      317528    4023.   4351 
# … with 216 more rows, and abbreviated variable names
#   ¹​mediana_confirmados, ²​media_mortos, ³​mediana_mortos

Eu posso agrupar por vários grupos por exemplo:

library(tidyr)
covid %>% 
  janitor::clean_names() %>% 
  group_by(country_region, province_state) %>% 
  drop_na() %>% 
  count(wt = deaths, sort = TRUE)

# A tibble: 760 × 3
# Groups:   country_region, province_state
#   [760]
   country_region province_state        n
   <chr>          <chr>             <dbl>
 1 UK             England        13897698
 2 US             New York       10888511
 3 Brazil         Sao Paulo       9651617
 4 India          Maharashtra     9117030
 5 Italy          Lombardia       5743485
 6 US             California      5358608
 7 Brazil         Rio de Janeiro  5335936
 8 US             Texas           5072817
 9 US             New Jersey      5054435
10 US             Florida         4153905
# … with 750 more rows
…
Dataset tidyr::billboard

Dataset tidyr::fish_encounters

library(tidyr)
relig_income %>% 
  pivot_longer(!religion,
               names_to = "income",
               values_to = "count") %>% 
  mutate(across(where(is.character), as.factor)) %>% 
  filter(!str_detect(income, "Don't know")) %>% 
  count(religion, income, wt = count, sort = TRUE)

# A tibble: 162 × 3
   religion         income       n
   <fct>            <fct>    <dbl>
 1 Evangelical Prot $50-75k   1486
 2 Catholic         $50-75k   1116
 3 Mainline Prot    $50-75k   1107
 4 Evangelical Prot $20-30k   1064
 5 Evangelical Prot $30-40k    982
 6 Catholic         $75-100k   949
 7 Evangelical Prot $75-100k   949
 8 Mainline Prot    $75-100k   939
 9 Evangelical Prot $40-50k    881
10 Evangelical Prot $10-20k    869
# … with 152 more rows

billboard %>% 
  pivot_longer(
    cols = starts_with("wk"),
    names_to = "week",
    values_to = "rank",
    values_drop_na = TRUE
  ) %>% 
  group_by(artist) %>% 
  summarise(
    n = n(),
    median_rank = median(rank)) %>% 
  arrange(-n, median_rank)

# A tibble: 228 × 3
   artist                  n median_rank
   <chr>               <int>       <dbl>
 1 Creed                 104        28.5
 2 Lonestar               95        38  
 3 Destiny's Child        92        13  
 4 N'Sync                 74        12  
 5 Sisqo                  74        25.5
 6 3 Doors Down           73        42  
 7 Jay-Z                  73        45  
 8 Aguilera, Christina    67        17  
 9 Hill, Faith            67        28  
10 Houston, Whitney       67        54  
# … with 218 more rows

fish_encounters %>%
  pivot_wider(
    names_from = station,
    values_from = seen,
    values_fill = 0
  ) %>% 
  pivot_longer(!fish, names_to = "station", values_to = "seen")

# A tibble: 209 × 3
   fish  station  seen
   <fct> <chr>   <int>
 1 4842  Release     1
 2 4842  I80_1       1
 3 4842  Lisbon      1
 4 4842  Rstr        1
 5 4842  Base_TD     1
 6 4842  BCE         1
 7 4842  BCW         1
 8 4842  BCE2        1
 9 4842  BCW2        1
10 4842  MAE         1
# … with 199 more rows
Além do unnest_wider() e unnest_longer():

Dataset repurrrsive::got_chars

library(repurrrsive)
chars <- tibble(char = got_chars)
chars %>%
  unnest_wider(char) %>% 
  select(name, books, tvSeries) %>% 
  pivot_longer(!name, names_to = "media") %>% 
  unnest_longer(value) %>% 
  filter(media == "tvSeries") %>% 
  extract(value, "season", "(\\d{1})", convert = TRUE)

# A tibble: 102 × 3
   name             media    season
   <chr>            <chr>     <int>
 1 Theon Greyjoy    tvSeries      1
 2 Theon Greyjoy    tvSeries      2
 3 Theon Greyjoy    tvSeries      3
 4 Theon Greyjoy    tvSeries      4
 5 Theon Greyjoy    tvSeries      5
 6 Theon Greyjoy    tvSeries      6
 7 Tyrion Lannister tvSeries      1
 8 Tyrion Lannister tvSeries      2
 9 Tyrion Lannister tvSeries      3
10 Tyrion Lannister tvSeries      4
# … with 92 more rows

Uma outra maneira

chars %>%
  unnest_wider(char) %>% 
  select(name, books, tvSeries) %>% 
  pivot_longer(!name, names_to = "media") %>% 
  unnest_longer(value) %>% 
  filter(media == "tvSeries") %>% 
  separate(value, into = c(NA, "season"), sep = " ", fill = "right")

# A tibble: 102 × 3
   name             media    season
   <chr>            <chr>    <chr> 
 1 Theon Greyjoy    tvSeries 1     
 2 Theon Greyjoy    tvSeries 2     
 3 Theon Greyjoy    tvSeries 3     
 4 Theon Greyjoy    tvSeries 4     
 5 Theon Greyjoy    tvSeries 5     
 6 Theon Greyjoy    tvSeries 6     
 7 Tyrion Lannister tvSeries 1     
 8 Tyrion Lannister tvSeries 2     
 9 Tyrion Lannister tvSeries 3     
10 Tyrion Lannister tvSeries 4     
# … with 92 more rows
…
